
{
    "news": [
         {
         "newsID": 1,
         "newsTitle": "What will Apple name its next OS X?",
         "newsAuthor": "Myanmar Apple",
         "newsDate": "02-Jul-2013 21:00",
         "newsTimestamp": 1380538302,
         "newsShortDesc": "Here are a few ideas /nOS X Mavericks is here, and with it comes Apple's all-new naming scheme for its software. Leaving cats behind",
        "newsContent": "What will Apple name its next OS X? Here are a few ideas /nOS X Mavericks is here, and with it comes Apple's all-new naming scheme for its software. Leaving cats behind, the company is instead focusing on locations in California for its software monikers. Mavericks, for example, is the name of a popular surf spot ( http://en.wikipedia.org/wiki/Mavericks_(location) ) .But as we're all getting used to an OS X without feline flair, I think it's time we look forward. So with that in mind -- and following the California theme.",
         "newsImage": "https://fbcdn-sphotos-d-a.akamaihd.net/hphotos-ak-frc3/q71/1374211_657482950958520_183877608_n.jpg",
         "newsUrl": "http://www.iwh.com.sg/",
         "category": "Sports"
         },
         {
         "newsID": 2,
         "newsTitle": "The Truth About ‘Free’ Mac App Store Software Upgrades in OS X Mavericks",
         "newsAuthor": "Myanmar Apple",
         "newsDate": "02-Jul-2013 21:00",
         "newsTimestamp": 1380538302,
         "newsShortDesc": "There have been a number of reports lately revealing that OS X Mavericks seems to be allowing users to “upgrade illegal or trial version”",
         "newsContent": "There have been a number of reports lately revealing that OS X Mavericks seems to be allowing users to “upgrade illegal or trial version” Apple software obtained outside the Mac App Store. Notable examples of such software include versions of iWork, iLife, or Aperture obtained on a DVD disc, or trial versions of such apps (the defunct trial pages for iWork and Aperture still exist on Apple.com)./n Indeed, according to reports from The Verge, 9to5Mac, and others, users with trial or illegal versions of the software are finding that they are able to update to the recently-released new versions of each of these Apps (released alongside Apple’s event this Tuesday). I held off on reporting this myself until I could find some real information on the matter./nWhile updates for legit, paid versions of each app – even those obtained before the days of the Mac App Store – have always received updates through Software Update via the Mac App Store, the fact that trial versions were being converted into fully functioning paid versions of Apple’s software piqued my interest, so I decided to dig around and figure out exactly what was going on./nI initially spotted a tidbit related to Aperture after updating to the release version of Mavericks on Tuesday – namely that the update to Aperture 3.5 was not available for me through Software Update in the Mac App Store. After waiting several hours to no avail, I further found that the standalone Aperture 3.5 update was also not available through Apple’s support download site.",
         "newsImage": "https://fbcdn-sphotos-a-a.akamaihd.net/hphotos-ak-ash3/1385867_657248804315268_1216977001_n.png",
         "newsUrl": "http://www.mactrast.com/2013/10/truth-free-mac-app-store-software-upgrades-os-x-mavericks/",
         "category": "Entertainment"
         },
         {
         "newsID": 3,
         "newsTitle": "iFixit.com tears down the new MacBook Pro Retina 13-inch and 15-inch",
         "newsAuthor": "Myanmar Apple",
         "newsDate": "02-Jul-2013 21:00",
         "newsTimestamp": 1380538302,
         "newsShortDesc": "If you enjoy knowing all about the bits and bobs that go into the technology you purchase, it should come as no surprise to know",
             "newsContent": "If you enjoy knowing all about the bits and bobs that go into the technology you purchase, it should come as no surprise to know that iFixIt has already got their constructively deconstructive hands on a pair of new MacBook Pro Retina's and as such, have already began tearing them down./nThe 13-inch is still under way but the 15-inch has been spalyed out in all it's splendid glory and to no one's surprise, there's a lot of technology jammed into that beautiful little chassis. Some favorable highlights as noted by iFixIt about the 15-inch MacBook Pro Retina can be found below./nThe 15\" Retina now has a PCIe-based SSD instead of the mSATA drive of yesteryear. The new Samsung-based SSD contains the following ICs:Samsung K4P4G324EB-FGC2 512 MB Mobile DRAM /n Samsung S4LNO53X01-8030 SSD Controller/nSamsung K9HFGY8S5C 32 GB NAND Flash Modules (8 chips for 256 GB total)/nOne of the few differences: It now has a sleekified heat sink with just a single thermal pad, thanks to the more closely integrated GPU — which we attribute to the \"Haswellification\" process, as we call it. Apple added a new AirPort card that supports 802.11ac Wi-Fi. The Broadcom BCM4360 on this AirPort card enables operation on the 5 GHz band at speeds up to 1.3 Gbps, while a Broadcom BCM20702 Bluetooth 4.0 Processor gets Bluetoothy things done for your convenience. Also in residence are a pair of Skyworks SE5516 dual-band 802.11 a/b/g/n/ac WLAN front-end modules.",
         "newsImage": "https://fbcdn-sphotos-c-a.akamaihd.net/hphotos-ak-ash3/1382857_657246164315532_582181891_n.jpg",
         "newsUrl": "https://www.facebook.com/photo.php?fbid=657246164315532&set=a.223995367640616.61800.175503195823167&type=1&theater",
         "category": "Entertainment"
         }
         ]
}